…
<div class = "msmb-solution"><p class="solution-begin">&#x25BA; Solution<span id='sol-start-6' class="fa fa-plus-square solution-icon clickable" onclick="toggle_visibility('sol-body-6', 'sol-start-6')"></span></p><div class="solution-body" id = "sol-body-6" style="display: none;">



Here are two options using indices:


```r
catch[, 1]
```

```
## # A tibble: 2,325 x 1
##    Site       
##    <chr>      
##  1 Aransas_Bay
##  2 Aransas_Bay
##  3 Aransas_Bay
##  4 Aransas_Bay
##  5 Aransas_Bay
##  6 Aransas_Bay
##  7 Aransas_Bay
##  8 Aransas_Bay
##  9 Aransas_Bay
## 10 Aransas_Bay
## # ... with 2,315 more rows
```

```r
catch[1]
```

```
## # A tibble: 2,325 x 1
##    Site       
##    <chr>      
##  1 Aransas_Bay
##  2 Aransas_Bay
##  3 Aransas_Bay
##  4 Aransas_Bay
##  5 Aransas_Bay
##  6 Aransas_Bay
##  7 Aransas_Bay
##  8 Aransas_Bay
##  9 Aransas_Bay
## 10 Aransas_Bay
## # ... with 2,315 more rows
```

Instead of using indices you can also call their column names directly - both of these options will return a `data.frame`.


```r
catch["Site"]
```

```
## # A tibble: 2,325 x 1
##    Site       
##    <chr>      
##  1 Aransas_Bay
##  2 Aransas_Bay
##  3 Aransas_Bay
##  4 Aransas_Bay
##  5 Aransas_Bay
##  6 Aransas_Bay
##  7 Aransas_Bay
##  8 Aransas_Bay
##  9 Aransas_Bay
## 10 Aransas_Bay
## # ... with 2,315 more rows
```

```r
catch[, "Site"]
```

```
## # A tibble: 2,325 x 1
##    Site       
##    <chr>      
##  1 Aransas_Bay
##  2 Aransas_Bay
##  3 Aransas_Bay
##  4 Aransas_Bay
##  5 Aransas_Bay
##  6 Aransas_Bay
##  7 Aransas_Bay
##  8 Aransas_Bay
##  9 Aransas_Bay
## 10 Aransas_Bay
## # ... with 2,315 more rows
```
…
<div class = 'question' id='ques:tidy-1'><p class='question-begin'>&#x25BA; Question</p><div class='question-body'><p>How would you select just Day, Month, and Year columns?</p><p class='question-end'><span class='fa fa-square-o solution-icon'></span></p></div></div>



You PCL column doesn't contain any information (all `NA`s) - you can also eliminate individual columns by name.


```r
catch %>%
  select(-PCL)
```

```
## # A tibble: 2,325 x 11
##    Site        Species       Sex   Observed_Stage    FL   STL Hook_Size   Set   Day Month  Year
##    <chr>       <chr>         <chr> <chr>          <dbl> <dbl>     <dbl> <dbl> <dbl> <dbl> <dbl>
##  1 Aransas_Bay Bagre_marinus U     <NA>             287   353        10     1    28     7  2015
##  2 Aransas_Bay Bagre_marinus U     <NA>             425   495        10     1    28     7  2015
##  3 Aransas_Bay Bagre_marinus U     <NA>             416   502        15     1    28     7  2015
##  4 Aransas_Bay Bagre_marinus U     <NA>             416   507        10     1    28     7  2015
##  5 Aransas_Bay Bagre_marinus U     <NA>             418   510        15     1    28     7  2015
##  6 Aransas_Bay Bagre_marinus U     <NA>             434   515        10     1    28     7  2015
##  7 Aransas_Bay Bagre_marinus U     <NA>             427   520        15     1    28     7  2015
##  8 Aransas_Bay Bagre_marinus U     <NA>             446   532        10     1    28     7  2015
##  9 Aransas_Bay Bagre_marinus U     <NA>             465   538        10     1    28     7  2015
## 10 Aransas_Bay Bagre_marinus U     <NA>             450   539        10     1    28     7  2015
## # ... with 2,315 more rows
```

<div class = 'question' id='ques:tidy-2'><p class='question-begin'>&#x25BA; Question</p><div class='question-body'><p>How would you eliminate hook size from the data set?</p><p class='question-end'><span class='fa fa-square-o solution-icon'></span></p></div></div>



You can also eliminate multiple columns by name, for example you would remove Day, Month and Year like this:


```r
catch %>%
  select(-Day, -Month, -Year)
```

```
## # A tibble: 2,325 x 9
##    Site        Species       Sex   Observed_Stage   PCL    FL   STL Hook_Size   Set
##    <chr>       <chr>         <chr> <chr>          <dbl> <dbl> <dbl>     <dbl> <dbl>
##  1 Aransas_Bay Bagre_marinus U     <NA>              NA   287   353        10     1
##  2 Aransas_Bay Bagre_marinus U     <NA>              NA   425   495        10     1
##  3 Aransas_Bay Bagre_marinus U     <NA>              NA   416   502        15     1
##  4 Aransas_Bay Bagre_marinus U     <NA>              NA   416   507        10     1
##  5 Aransas_Bay Bagre_marinus U     <NA>              NA   418   510        15     1
##  6 Aransas_Bay Bagre_marinus U     <NA>              NA   434   515        10     1
##  7 Aransas_Bay Bagre_marinus U     <NA>              NA   427   520        15     1
##  8 Aransas_Bay Bagre_marinus U     <NA>              NA   446   532        10     1
##  9 Aransas_Bay Bagre_marinus U     <NA>              NA   465   538        10     1
## 10 Aransas_Bay Bagre_marinus U     <NA>              NA   450   539        10     1
## # ... with 2,315 more rows
```

If you want to re-arrange columns in your data frame, you would also use `select()`.


```r
catch %>%
  select(FL, Sex, Day)
```

```
## # A tibble: 2,325 x 3
##       FL Sex     Day
##    <dbl> <chr> <dbl>
##  1   287 U        28
##  2   425 U        28
##  3   416 U        28
##  4   416 U        28
##  5   418 U        28
##  6   434 U        28
##  7   427 U        28
##  8   446 U        28
##  9   465 U        28
## 10   450 U        28
## # ... with 2,315 more rows
```

If you wanted to move a set of columns to the front, but not have to type in all the other column names you can use `everything()`.


```r
catch %>%
  select(Day, Month, Year, everything())
```

```
## # A tibble: 2,325 x 12
##      Day Month  Year Site        Species       Sex   Observed_Stage   PCL    FL   STL Hook_Size   Set
##    <dbl> <dbl> <dbl> <chr>       <chr>         <chr> <chr>          <dbl> <dbl> <dbl>     <dbl> <dbl>
##  1    28     7  2015 Aransas_Bay Bagre_marinus U     <NA>              NA   287   353        10     1
##  2    28     7  2015 Aransas_Bay Bagre_marinus U     <NA>              NA   425   495        10     1
##  3    28     7  2015 Aransas_Bay Bagre_marinus U     <NA>              NA   416   502        15     1
##  4    28     7  2015 Aransas_Bay Bagre_marinus U     <NA>              NA   416   507        10     1
##  5    28     7  2015 Aransas_Bay Bagre_marinus U     <NA>              NA   418   510        15     1
##  6    28     7  2015 Aransas_Bay Bagre_marinus U     <NA>              NA   434   515        10     1
##  7    28     7  2015 Aransas_Bay Bagre_marinus U     <NA>              NA   427   520        15     1
##  8    28     7  2015 Aransas_Bay Bagre_marinus U     <NA>              NA   446   532        10     1
##  9    28     7  2015 Aransas_Bay Bagre_marinus U     <NA>              NA   465   538        10     1
## 10    28     7  2015 Aransas_Bay Bagre_marinus U     <NA>              NA   450   539        10     1
## # ... with 2,315 more rows
```
…
Occasionally you will find that you want to combine the contents of two columns into a single column (e.g. first name, last name) or at other times you may want to separate the contents of a column over multiple columns (e.g. dates). 

For example, you may have noticed that the Species is entered as `genus_species` - what if you wanted to have two separate columns with that information? The function `separate()` is a function that will split the contents from one column across two or more columns. 

To do this you need to specify the new column names (`into = c("column1", "column2")`), and what pattern should be used to determine where the content should be split (`sep = "pattern"`).


```r
catch %>%
  separate(Species, into = c("species", "genus"), sep = "_", remove = FALSE)
```

```
## # A tibble: 2,325 x 14
##    Site        Species       species genus   Sex   Observed_Stage   PCL    FL   STL Hook_Size   Set   Day Month  Year
##    <chr>       <chr>         <chr>   <chr>   <chr> <chr>          <dbl> <dbl> <dbl>     <dbl> <dbl> <dbl> <dbl> <dbl>
##  1 Aransas_Bay Bagre_marinus Bagre   marinus U     <NA>              NA   287   353        10     1    28     7  2015
##  2 Aransas_Bay Bagre_marinus Bagre   marinus U     <NA>              NA   425   495        10     1    28     7  2015
##  3 Aransas_Bay Bagre_marinus Bagre   marinus U     <NA>              NA   416   502        15     1    28     7  2015
##  4 Aransas_Bay Bagre_marinus Bagre   marinus U     <NA>              NA   416   507        10     1    28     7  2015
##  5 Aransas_Bay Bagre_marinus Bagre   marinus U     <NA>              NA   418   510        15     1    28     7  2015
##  6 Aransas_Bay Bagre_marinus Bagre   marinus U     <NA>              NA   434   515        10     1    28     7  2015
##  7 Aransas_Bay Bagre_marinus Bagre   marinus U     <NA>              NA   427   520        15     1    28     7  2015
##  8 Aransas_Bay Bagre_marinus Bagre   marinus U     <NA>              NA   446   532        10     1    28     7  2015
##  9 Aransas_Bay Bagre_marinus Bagre   marinus U     <NA>              NA   465   538        10     1    28     7  2015
## 10 Aransas_Bay Bagre_marinus Bagre   marinus U     <NA>              NA   450   539        10     1    28     7  2015
## # ... with 2,315 more rows
```
…
<p class="question-end"><span class="fa fa-square-o solution-icon"></span></p></div></div>



To do the opposite action you would use `unite()`. For example, if we wanted to create a column called date that had the day, month, and year of each sampling trip separated by an `_`.


```r
catch %>%
  unite(Date, Day, Month, Year, sep = "_", remove = FALSE)
```

```
## # A tibble: 2,325 x 13
##    Site        Species       Sex   Observed_Stage   PCL    FL   STL Hook_Size   Set Date        Day Month  Year
##    <chr>       <chr>         <chr> <chr>          <dbl> <dbl> <dbl>     <dbl> <dbl> <chr>     <dbl> <dbl> <dbl>
##  1 Aransas_Bay Bagre_marinus U     <NA>              NA   287   353        10     1 28_7_2015    28     7  2015
##  2 Aransas_Bay Bagre_marinus U     <NA>              NA   425   495        10     1 28_7_2015    28     7  2015
##  3 Aransas_Bay Bagre_marinus U     <NA>              NA   416   502        15     1 28_7_2015    28     7  2015
##  4 Aransas_Bay Bagre_marinus U     <NA>              NA   416   507        10     1 28_7_2015    28     7  2015
##  5 Aransas_Bay Bagre_marinus U     <NA>              NA   418   510        15     1 28_7_2015    28     7  2015
##  6 Aransas_Bay Bagre_marinus U     <NA>              NA   434   515        10     1 28_7_2015    28     7  2015
##  7 Aransas_Bay Bagre_marinus U     <NA>              NA   427   520        15     1 28_7_2015    28     7  2015
##  8 Aransas_Bay Bagre_marinus U     <NA>              NA   446   532        10     1 28_7_2015    28     7  2015
##  9 Aransas_Bay Bagre_marinus U     <NA>              NA   465   538        10     1 28_7_2015    28     7  2015
## 10 Aransas_Bay Bagre_marinus U     <NA>              NA   450   539        10     1 28_7_2015    28     7  2015
## # ... with 2,315 more rows
```
…
## Filtering (subsetting) rows

Until you want to visualize a table how the rows are arranged is not really important. However, when generating reports for example you might want values to be listed in a specific way. This can be done using the function `arrange()`.

For example, if we wanted to arrange our dataframe based on the `Observed_Stage` column we could do the following:


```r
catch %>%
  arrange(Observed_Stage)
```

```
## # A tibble: 2,325 x 12
##    Site               Species                 Sex   Observed_Stage   PCL    FL   STL Hook_Size   Set   Day Month  Year
##    <chr>              <chr>                   <chr> <chr>          <dbl> <dbl> <dbl>     <dbl> <dbl> <dbl> <dbl> <dbl>
##  1 Redfish_Bay        Sphyrna_tiburo          M     MAT              622   668   850        10     1     8     9  2015
##  2 Redfish_Bay        Sphyrna_tiburo          M     MAT              656   710   869        10     1     8     9  2015
##  3 Redfish_Bay        Sphyrna_tiburo          F     MAT              708   770   979        15     2     8     9  2015
##  4 Corpus_Christi_Bay Sphyrna_tiburo          M     MAT              695   757   954        10     2    12     9  2016
##  5 Corpus_Christi_Bay Sphyrna_tiburo          F     MAT              760   861  1090        10     2    12     9  2016
##  6 Corpus_Christi_Bay Sphyrna_tiburo          M     MAT              621   689   856        10     2    27     9  2016
##  7 Redfish_Bay        Sphyrna_tiburo          F     MAT              781   853  1020        10     4    29     9  2016
##  8 Redfish_Bay        Sphyrna_tiburo          M     MAT              721   783   980        10     3    11     8  2017
##  9 Redfish_Bay        Carcharhinus_brevipinna U     UND               NA    NA    NA        15     2    16     6  2016
## 10 Corpus_Christi_Bay Sphyrna_tiburo          U     UND               NA    NA    NA        10     1    27     9  2016
## # ... with 2,315 more rows
```

<div class = 'question' id='ques:tidy-8'><p class='question-begin'>&#x25BA; Question</p><div class='question-body'><p>How would sort your table by Sex?</p><p class='question-end'><span class='fa fa-square-o solution-icon'></span></p></div></div>



Characters are sorted alphabetically, numeric columns from smallest to largest value. If you want to order your values from largest to smallest, you can specify that using `desc()`


```r
catch %>%
  arrange(desc(FL))
```

```
## # A tibble: 2,325 x 12
##    Site               Species                 Sex   Observed_Stage   PCL    FL   STL Hook_Size   Set   Day Month  Year
##    <chr>              <chr>                   <chr> <chr>          <dbl> <dbl> <dbl>     <dbl> <dbl> <dbl> <dbl> <dbl>
##  1 Aransas_Bay        Carcharhinus_leucas     F     <NA>            1042  1140  1410        15     1    25     5  2016
##  2 Redfish_Bay        Carcharhinus_brevipinna F     <NA>             812   900  1090        15     1    16     6  2016
##  3 Redfish_Bay        Carcharhinus_brevipinna M     <NA>             792   882  1092        15     2    16     6  2016
##  4 Corpus_Christi_Bay Sphyrna_tiburo          F     MAT              760   861  1090        10     2    12     9  2016
##  5 Redfish_Bay        Sphyrna_tiburo          F     MAT              781   853  1020        10     4    29     9  2016
##  6 Corpus_Christi_Bay Sciaenops_ocellatus     U     <NA>              NA   841   950        10     3    25     9  2018
##  7 Redfish_Bay        Carcharhinus_leucas     M     <NA>             740   840  1010        15     3    29     9  2016
##  8 Redfish_Bay        Carcharhinus_brevipinna M     <NA>             740   820  1020        10     4     1     8  2016
##  9 Aransas_Bay        Carcharhinus_leucas     M     <NA>             720   812   912        15     4    22     9  2016
## 10 Redfish_Bay        Sphyrna_tiburo          M     MAT              721   783   980        10     3    11     8  2017
## # ... with 2,315 more rows
```

The function `filter()` is used to subset a data frame by row. 

We do this using `regular expressions` and the `boolean operators` we previously encounter to describe the content of sets of rows.

For example, we might a `data.frame` with only Gafftop sail catfish (*Bagre marinus*).


```r
catch %>%
  filter(Species == "Bagre_marinus")
```

```
## # A tibble: 1,511 x 12
##    Site        Species       Sex   Observed_Stage   PCL    FL   STL Hook_Size   Set   Day Month  Year
##    <chr>       <chr>         <chr> <chr>          <dbl> <dbl> <dbl>     <dbl> <dbl> <dbl> <dbl> <dbl>
##  1 Aransas_Bay Bagre_marinus U     <NA>              NA   287   353        10     1    28     7  2015
##  2 Aransas_Bay Bagre_marinus U     <NA>              NA   425   495        10     1    28     7  2015
##  3 Aransas_Bay Bagre_marinus U     <NA>              NA   416   502        15     1    28     7  2015
##  4 Aransas_Bay Bagre_marinus U     <NA>              NA   416   507        10     1    28     7  2015
##  5 Aransas_Bay Bagre_marinus U     <NA>              NA   418   510        15     1    28     7  2015
##  6 Aransas_Bay Bagre_marinus U     <NA>              NA   434   515        10     1    28     7  2015
##  7 Aransas_Bay Bagre_marinus U     <NA>              NA   427   520        15     1    28     7  2015
##  8 Aransas_Bay Bagre_marinus U     <NA>              NA   446   532        10     1    28     7  2015
##  9 Aransas_Bay Bagre_marinus U     <NA>              NA   465   538        10     1    28     7  2015
## 10 Aransas_Bay Bagre_marinus U     <NA>              NA   450   539        10     1    28     7  2015
## # ... with 1,501 more rows
```

<div class = 'question' id='ques:tidy-9'><p class='question-begin'>&#x25BA; Question</p><div class='question-body'><p>How would you select only rows containing Scalloped Hammerheads (*Sphyrna lewini*)?</p><p class='question-end'><span class='fa fa-square-o solution-icon'></span></p></div></div>

^[Note: you need to use `==` (not `=` if you are looking for an exact match).]

If want all rows but Gafftop sailfish you can use a `!` to say "not that".


```r
catch %>%
  filter(!Species == "Bagre_marinus")
```

```
## # A tibble: 814 x 12
##    Site               Species                    Sex   Observed_Stage   PCL    FL   STL Hook_Size   Set   Day Month  Year
##    <chr>              <chr>                      <chr> <chr>          <dbl> <dbl> <dbl>     <dbl> <dbl> <dbl> <dbl> <dbl>
##  1 Redfish_Bay        Rhizoprionodon_terraenovae M     <NA>             351   378   433        15     1    29     7  2015
##  2 Redfish_Bay        Sphyrna_tiburo             F     <NA>             470   430   600        10     3    29     7  2015
##  3 Redfish_Bay        Hypanus_americanus         F     <NA>              NA    NA   670        15     3    29     7  2015
##  4 Redfish_Bay        Hypanus_sabina             F     <NA>              NA    NA   340        10     3    29     7  2015
##  5 Redfish_Bay        Hypanus_americanus         M     <NA>              NA    NA   810        10     4    29     7  2015
##  6 Corpus_Christi_Bay Carcharhinus_leucas        F     <NA>             609   670   820        15     1    30     7  2015
##  7 Corpus_Christi_Bay Sphyrna_tiburo             M     <NA>             495   485   615        10     2    24     8  2015
##  8 Corpus_Christi_Bay Sphyrna_tiburo             F     <NA>             550   370   720        10     2    24     8  2015
##  9 Corpus_Christi_Bay Sphyrna_tiburo             M     <NA>             470   505   645        10     3    24     8  2015
## 10 Corpus_Christi_Bay Sphyrna_tiburo             F     <NA>             540   565   720        10     3    24     8  2015
## # ... with 804 more rows
```
…
