12 Data Wrangling & Tidy data Revisited | Data Science for the Natural Environment (FA21)
…
## # A tibble: 6 x 5
##   artist track                   date.entered week   rank
##   <chr>  <chr>                   <date>       <chr> <dbl>
## 1 2 Pac  Baby Don't Cry (Keep... 2000-02-26   wk1      87
## 2 2 Pac  Baby Don't Cry (Keep... 2000-02-26   wk10     NA
## 3 2 Pac  Baby Don't Cry (Keep... 2000-02-26   wk11     NA
## 4 2 Pac  Baby Don't Cry (Keep... 2000-02-26   wk12     NA
## 5 2 Pac  Baby Don't Cry (Keep... 2000-02-26   wk13     NA
## 6 2 Pac  Baby Don't Cry (Keep... 2000-02-26   wk14     NA

tidy %>%
  arrange(date.entered, rank)

## # A tibble: 24,092 x 5
##    artist   track  date.entered week   rank
##    <chr>    <chr>  <date>       <chr> <dbl>
##  1 Lonestar Amazed 1999-06-05   wk40      1
##  2 Lonestar Amazed 1999-06-05   wk41      1
##  3 Lonestar Amazed 1999-06-05   wk42      2
##  4 Lonestar Amazed 1999-06-05   wk39      3
##  5 Lonestar Amazed 1999-06-05   wk43      3
##  6 Lonestar Amazed 1999-06-05   wk44      4
##  7 Lonestar Amazed 1999-06-05   wk45      4
##  8 Lonestar Amazed 1999-06-05   wk46      5
##  9 Lonestar Amazed 1999-06-05   wk47      6
## 10 Lonestar Amazed 1999-06-05   wk48      8
## # ... with 24,082 more rows
…
