6 Intro to data frames | Data Science for the Natural Environment (FA21)
…
► Question 29

How would you extract the entire 5th column?

► Solution

Here are two options using indices:

catch[, 1]

## # A tibble: 2,325 x 1
##    Site       
##    <chr>      
##  1 Aransas_Bay
##  2 Aransas_Bay
##  3 Aransas_Bay
##  4 Aransas_Bay
##  5 Aransas_Bay
##  6 Aransas_Bay
##  7 Aransas_Bay
##  8 Aransas_Bay
##  9 Aransas_Bay
## 10 Aransas_Bay
## # ... with 2,315 more rows

catch[1]

## # A tibble: 2,325 x 1
##    Site       
##    <chr>      
##  1 Aransas_Bay
##  2 Aransas_Bay
##  3 Aransas_Bay
##  4 Aransas_Bay
##  5 Aransas_Bay
##  6 Aransas_Bay
##  7 Aransas_Bay
##  8 Aransas_Bay
##  9 Aransas_Bay
## 10 Aransas_Bay
## # ... with 2,315 more rows

Instead of using indices you can also call their column names directly - both of these options will return a data.frame.

catch["Site"]

## # A tibble: 2,325 x 1
##    Site       
##    <chr>      
##  1 Aransas_Bay
##  2 Aransas_Bay
##  3 Aransas_Bay
##  4 Aransas_Bay
##  5 Aransas_Bay
##  6 Aransas_Bay
##  7 Aransas_Bay
##  8 Aransas_Bay
##  9 Aransas_Bay
## 10 Aransas_Bay
## # ... with 2,315 more rows

catch[, "Site"]

## # A tibble: 2,325 x 1
##    Site       
##    <chr>      
##  1 Aransas_Bay
##  2 Aransas_Bay
##  3 Aransas_Bay
##  4 Aransas_Bay
##  5 Aransas_Bay
##  6 Aransas_Bay
##  7 Aransas_Bay
##  8 Aransas_Bay
##  9 Aransas_Bay
## 10 Aransas_Bay
## # ... with 2,315 more rows
…
