23 Predictive modeling for air pollution | Data Science for the Natural Environment (FA21)
…
Vermont

Virginia

Washington

West Virginia

Wisconsin

Wyoming

Cities with largest number of air monitors?

## # A tibble: 607 x 2
## # Groups:   city [607]
##    city              n
##    <chr>         <int>
##  1 Not in a city   103
##  2 New York          9
##  3 Cleveland         6
##  4 Baltimore         5
##  5 Chicago           5
##  6 Detroit           5
##  7 Milwaukee         5
##  8 New Haven         5
##  9 Philadelphia      5
## 10 Springfield       5
## # ... with 597 more rows
…
## Recipe
## 
## Inputs:
## 
##         role #variables
##  id variable          1
##      outcome          1
##    predictor         48

Let’s take closer look at our recipe

summary(simple_rec)

## # A tibble: 50 x 4
##    variable type    role        source  
##    <chr>    <chr>   <chr>       <chr>   
##  1 id       nominal id variable original
##  2 value    numeric outcome     original
##  3 fips     nominal predictor   original
##  4 lat      numeric predictor   original
##  5 lon      numeric predictor   original
##  6 state    nominal predictor   original
##  7 county   nominal predictor   original
##  8 city     nominal predictor   original
##  9 cmaq     numeric predictor   original
## 10 zcta     nominal predictor   original
## # ... with 40 more rows
…
23.4.7 Evaluate model performanceCopy link

Now that we have a fitted model we need to determine how well our model actually performs. The way to do this is to compare the similarity of predicted estimates and observed values of the outcome variable147147 Recall, that a machine learning optimization problem tires to minimize the distance between the predicted outcome \(\hat{Y} = f(X)\) and actual outcome \(Y\) using the predictor variables \(X\) as input for our function \(f\) that we want to estimate..

We can use the function broom::augment() to pull the observed and fitted values from our workflow.

fit_PM <- PM_wflow_fit %>%
  pull_workflow_fit()

fit_PM <- augment(fit_PM$fit, data = baked_train) %>%
  select(value, .fitted:.std.resid)

fit_PM

## # A tibble: 584 x 6
##    value .fitted   .hat .sigma   .cooksd .std.resid
##    <dbl>   <dbl>  <dbl>  <dbl>     <dbl>      <dbl>
##  1 11.7    12.2  0.0370   2.05 0.0000648     -0.243
##  2  6.96    9.14 0.0496   2.05 0.00179       -1.09 
##  3 13.3    12.6  0.0484   2.05 0.000151       0.322
##  4 10.7    10.4  0.0502   2.05 0.0000504      0.183
##  5 14.5    11.9  0.0243   2.05 0.00113        1.26 
##  6 12.2     9.52 0.476    2.04 0.0850         1.81 
##  7 11.2    12.6  0.0541   2.05 0.000792      -0.696
##  8  6.98   10.3  0.0586   2.04 0.00495       -1.67 
##  9  6.61    8.74 0.0690   2.05 0.00247       -1.08 
## 10 11.6    10.0  0.0283   2.05 0.000522       0.792
## # ... with 574 more rows
…
Once we have tested the range of values we can asses our results using RMSE and R2.

# compare performance using RMSE and R2
tune_RF_results %>%
  collect_metrics()

## # A tibble: 40 x 8
##     mtry min_n .metric .estimator  mean     n std_err .config              
##    <int> <int> <chr>   <chr>      <dbl> <int>   <dbl> <chr>                
##  1     1    20 rmse    standard   2.01      4  0.143  Preprocessor1_Model01
##  2     1    20 rsq     standard   0.452     4  0.0381 Preprocessor1_Model01
##  3    30    16 rmse    standard   1.68      4  0.120  Preprocessor1_Model02
##  4    30    16 rsq     standard   0.563     4  0.0494 Preprocessor1_Model02
##  5     9    23 rmse    standard   1.71      4  0.135  Preprocessor1_Model03
##  6     9    23 rsq     standard   0.575     4  0.0424 Preprocessor1_Model03
##  7    31    30 rmse    standard   1.71      4  0.119  Preprocessor1_Model04
##  8    31    30 rsq     standard   0.548     4  0.0500 Preprocessor1_Model04
##  9    14    10 rmse    standard   1.66      4  0.130  Preprocessor1_Model05
## 10    14    10 rsq     standard   0.587     4  0.0472 Preprocessor1_Model05
## # ... with 30 more rows
…
