7 Welcome to the tidyverse | Data Science for the Natural Environment (FA21)
…
► Question 1

How would you select just Day, Month, and Year columns?

You PCL column doesn’t contain any information (all NAs) - you can also eliminate individual columns by name.

catch %>%
  select(-PCL)

## # A tibble: 2,325 x 11
##    Site    Species  Sex   Observed_Stage    FL   STL Hook_Size   Set   Day Month
##    <chr>   <chr>    <chr> <chr>          <dbl> <dbl>     <dbl> <dbl> <dbl> <dbl>
##  1 Aransa~ Bagre_m~ U     <NA>             287   353        10     1    28     7
##  2 Aransa~ Bagre_m~ U     <NA>             425   495        10     1    28     7
##  3 Aransa~ Bagre_m~ U     <NA>             416   502        15     1    28     7
##  4 Aransa~ Bagre_m~ U     <NA>             416   507        10     1    28     7
##  5 Aransa~ Bagre_m~ U     <NA>             418   510        15     1    28     7
##  6 Aransa~ Bagre_m~ U     <NA>             434   515        10     1    28     7
##  7 Aransa~ Bagre_m~ U     <NA>             427   520        15     1    28     7
##  8 Aransa~ Bagre_m~ U     <NA>             446   532        10     1    28     7
##  9 Aransa~ Bagre_m~ U     <NA>             465   538        10     1    28     7
## 10 Aransa~ Bagre_m~ U     <NA>             450   539        10     1    28     7
## # ... with 2,315 more rows, and 1 more variable: Year <dbl>

► Question 2

How would you eliminate hook size from the data set?

You can also eliminate multiple columns by name, for example you would remove Day, Month and Year like this:

catch %>%
  select(-Day, -Month, -Year)

## # A tibble: 2,325 x 9
##    Site       Species     Sex   Observed_Stage   PCL    FL   STL Hook_Size   Set
##    <chr>      <chr>       <chr> <chr>          <dbl> <dbl> <dbl>     <dbl> <dbl>
##  1 Aransas_B~ Bagre_mari~ U     <NA>              NA   287   353        10     1
##  2 Aransas_B~ Bagre_mari~ U     <NA>              NA   425   495        10     1
##  3 Aransas_B~ Bagre_mari~ U     <NA>              NA   416   502        15     1
##  4 Aransas_B~ Bagre_mari~ U     <NA>              NA   416   507        10     1
##  5 Aransas_B~ Bagre_mari~ U     <NA>              NA   418   510        15     1
##  6 Aransas_B~ Bagre_mari~ U     <NA>              NA   434   515        10     1
##  7 Aransas_B~ Bagre_mari~ U     <NA>              NA   427   520        15     1
##  8 Aransas_B~ Bagre_mari~ U     <NA>              NA   446   532        10     1
##  9 Aransas_B~ Bagre_mari~ U     <NA>              NA   465   538        10     1
## 10 Aransas_B~ Bagre_mari~ U     <NA>              NA   450   539        10     1
## # ... with 2,315 more rows

If you want to re-arrange columns in your data frame, you would also use select().

catch %>%
  select(FL, Sex, Day)

## # A tibble: 2,325 x 3
##       FL Sex     Day
##    <dbl> <chr> <dbl>
##  1   287 U        28
##  2   425 U        28
##  3   416 U        28
##  4   416 U        28
##  5   418 U        28
##  6   434 U        28
##  7   427 U        28
##  8   446 U        28
##  9   465 U        28
## 10   450 U        28
## # ... with 2,315 more rows

If you wanted to move a set of columns to the front, but not have to type in all the other column names you can use everything().

catch %>%
  select(Day, Month, Year, everything())

## # A tibble: 2,325 x 12
##      Day Month  Year Site      Species    Sex   Observed_Stage   PCL    FL   STL
##    <dbl> <dbl> <dbl> <chr>     <chr>      <chr> <chr>          <dbl> <dbl> <dbl>
##  1    28     7  2015 Aransas_~ Bagre_mar~ U     <NA>              NA   287   353
##  2    28     7  2015 Aransas_~ Bagre_mar~ U     <NA>              NA   425   495
##  3    28     7  2015 Aransas_~ Bagre_mar~ U     <NA>              NA   416   502
##  4    28     7  2015 Aransas_~ Bagre_mar~ U     <NA>              NA   416   507
##  5    28     7  2015 Aransas_~ Bagre_mar~ U     <NA>              NA   418   510
##  6    28     7  2015 Aransas_~ Bagre_mar~ U     <NA>              NA   434   515
##  7    28     7  2015 Aransas_~ Bagre_mar~ U     <NA>              NA   427   520
##  8    28     7  2015 Aransas_~ Bagre_mar~ U     <NA>              NA   446   532
##  9    28     7  2015 Aransas_~ Bagre_mar~ U     <NA>              NA   465   538
## 10    28     7  2015 Aransas_~ Bagre_mar~ U     <NA>              NA   450   539
## # ... with 2,315 more rows, and 2 more variables: Hook_Size <dbl>, Set <dbl>

There you go. Simple as that.

7.3 Separate & uniting columnsCopy link

Occasionally you will find that you want to combine the contents of two columns into a single column (e.g. first name, last name) or at other times you may want to separate the contents of a column over multiple columns (e.g. dates).

For example, you may have noticed that the Species is entered as genus_species - what if you wanted to have two separate columns with that information? The function separate() is a function that will split the contents from one column across two or more columns.

To do this you need to specify the new column names (into = c("column1", "column2")), and what pattern should be used to determine where the content should be split (sep = "pattern").

catch %>%
  separate(Species, into = c("species", "genus"), sep = "_", remove = FALSE)

## # A tibble: 2,325 x 14
##    Site   Species species genus Sex   Observed_Stage   PCL    FL   STL Hook_Size
##    <chr>  <chr>   <chr>   <chr> <chr> <chr>          <dbl> <dbl> <dbl>     <dbl>
##  1 Arans~ Bagre_~ Bagre   mari~ U     <NA>              NA   287   353        10
##  2 Arans~ Bagre_~ Bagre   mari~ U     <NA>              NA   425   495        10
##  3 Arans~ Bagre_~ Bagre   mari~ U     <NA>              NA   416   502        15
##  4 Arans~ Bagre_~ Bagre   mari~ U     <NA>              NA   416   507        10
##  5 Arans~ Bagre_~ Bagre   mari~ U     <NA>              NA   418   510        15
##  6 Arans~ Bagre_~ Bagre   mari~ U     <NA>              NA   434   515        10
##  7 Arans~ Bagre_~ Bagre   mari~ U     <NA>              NA   427   520        15
##  8 Arans~ Bagre_~ Bagre   mari~ U     <NA>              NA   446   532        10
##  9 Arans~ Bagre_~ Bagre   mari~ U     <NA>              NA   465   538        10
## 10 Arans~ Bagre_~ Bagre   mari~ U     <NA>              NA   450   539        10
## # ... with 2,315 more rows, and 4 more variables: Set <dbl>, Day <dbl>,
## #   Month <dbl>, Year <dbl>

► Question 3

In some cases, there might not be a distinct pattern that you can use to identify where to split the column content. In this case it may be more helpful to use the position (e.g. “split at”third character from the left") Look up the separate() function in the help and determine how you could split the Year column so you get two new columns by splitting off the last two digits (i.e. 2021 would be 20 and 21). Then eliminate the column containing the first two digits.

To do the opposite action you would use unite(). For example, if we wanted to create a column called date that had the day, month, and year of each sampling trip separated by an _.

catch %>%
  unite(Date, Day, Month, Year, sep = "_", remove = FALSE)

## # A tibble: 2,325 x 13
##    Site    Species  Sex   Observed_Stage   PCL    FL   STL Hook_Size   Set Date 
##    <chr>   <chr>    <chr> <chr>          <dbl> <dbl> <dbl>     <dbl> <dbl> <chr>
##  1 Aransa~ Bagre_m~ U     <NA>              NA   287   353        10     1 28_7~
##  2 Aransa~ Bagre_m~ U     <NA>              NA   425   495        10     1 28_7~
##  3 Aransa~ Bagre_m~ U     <NA>              NA   416   502        15     1 28_7~
##  4 Aransa~ Bagre_m~ U     <NA>              NA   416   507        10     1 28_7~
##  5 Aransa~ Bagre_m~ U     <NA>              NA   418   510        15     1 28_7~
##  6 Aransa~ Bagre_m~ U     <NA>              NA   434   515        10     1 28_7~
##  7 Aransa~ Bagre_m~ U     <NA>              NA   427   520        15     1 28_7~
##  8 Aransa~ Bagre_m~ U     <NA>              NA   446   532        10     1 28_7~
##  9 Aransa~ Bagre_m~ U     <NA>              NA   465   538        10     1 28_7~
## 10 Aransa~ Bagre_m~ U     <NA>              NA   450   539        10     1 28_7~
## # ... with 2,315 more rows, and 3 more variables: Day <dbl>, Month <dbl>,
## #   Year <dbl>
…
FL

STL

7.4 Filtering (subsetting) rowsCopy link

Until you want to visualize a table how the rows are arranged is not really important. However, when generating reports for example you might want values to be listed in a specific way. This can be done using the function arrange().

For example, if we wanted to arrange our dataframe based on the Observed_Stage column we could do the following:

catch %>%
  arrange(Observed_Stage)

## # A tibble: 2,325 x 12
##    Site    Species  Sex   Observed_Stage   PCL    FL   STL Hook_Size   Set   Day
##    <chr>   <chr>    <chr> <chr>          <dbl> <dbl> <dbl>     <dbl> <dbl> <dbl>
##  1 Redfis~ Sphyrna~ M     MAT              622   668   850        10     1     8
##  2 Redfis~ Sphyrna~ M     MAT              656   710   869        10     1     8
##  3 Redfis~ Sphyrna~ F     MAT              708   770   979        15     2     8
##  4 Corpus~ Sphyrna~ M     MAT              695   757   954        10     2    12
##  5 Corpus~ Sphyrna~ F     MAT              760   861  1090        10     2    12
##  6 Corpus~ Sphyrna~ M     MAT              621   689   856        10     2    27
##  7 Redfis~ Sphyrna~ F     MAT              781   853  1020        10     4    29
##  8 Redfis~ Sphyrna~ M     MAT              721   783   980        10     3    11
##  9 Redfis~ Carchar~ U     UND               NA    NA    NA        15     2    16
## 10 Corpus~ Sphyrna~ U     UND               NA    NA    NA        10     1    27
## # ... with 2,315 more rows, and 2 more variables: Month <dbl>, Year <dbl>

► Question 5

How would sort your table by Sex?

Characters are sorted alphabetically, numeric columns from smallest to largest value. If you want to order your values from largest to smallest, you can specify that using desc()

catch %>%
  arrange(desc(FL))

## # A tibble: 2,325 x 12
##    Site    Species  Sex   Observed_Stage   PCL    FL   STL Hook_Size   Set   Day
##    <chr>   <chr>    <chr> <chr>          <dbl> <dbl> <dbl>     <dbl> <dbl> <dbl>
##  1 Aransa~ Carchar~ F     <NA>            1042  1140  1410        15     1    25
##  2 Redfis~ Carchar~ F     <NA>             812   900  1090        15     1    16
##  3 Redfis~ Carchar~ M     <NA>             792   882  1092        15     2    16
##  4 Corpus~ Sphyrna~ F     MAT              760   861  1090        10     2    12
##  5 Redfis~ Sphyrna~ F     MAT              781   853  1020        10     4    29
##  6 Corpus~ Sciaeno~ U     <NA>              NA   841   950        10     3    25
##  7 Redfis~ Carchar~ M     <NA>             740   840  1010        15     3    29
##  8 Redfis~ Carchar~ M     <NA>             740   820  1020        10     4     1
##  9 Aransa~ Carchar~ M     <NA>             720   812   912        15     4    22
## 10 Redfis~ Sphyrna~ M     MAT              721   783   980        10     3    11
## # ... with 2,315 more rows, and 2 more variables: Month <dbl>, Year <dbl>

The function filter() is used to subset a data frame by row.

We do this using regular expressions and the boolean operators we previously encounter to describe the content of sets of rows.

For example, we might a data.frame with only Gafftop sail catfish (Bagre marinus).

catch %>%
  filter(Species == "Bagre_marinus")

## # A tibble: 1,511 x 12
##    Site    Species  Sex   Observed_Stage   PCL    FL   STL Hook_Size   Set   Day
##    <chr>   <chr>    <chr> <chr>          <dbl> <dbl> <dbl>     <dbl> <dbl> <dbl>
##  1 Aransa~ Bagre_m~ U     <NA>              NA   287   353        10     1    28
##  2 Aransa~ Bagre_m~ U     <NA>              NA   425   495        10     1    28
##  3 Aransa~ Bagre_m~ U     <NA>              NA   416   502        15     1    28
##  4 Aransa~ Bagre_m~ U     <NA>              NA   416   507        10     1    28
##  5 Aransa~ Bagre_m~ U     <NA>              NA   418   510        15     1    28
##  6 Aransa~ Bagre_m~ U     <NA>              NA   434   515        10     1    28
##  7 Aransa~ Bagre_m~ U     <NA>              NA   427   520        15     1    28
##  8 Aransa~ Bagre_m~ U     <NA>              NA   446   532        10     1    28
##  9 Aransa~ Bagre_m~ U     <NA>              NA   465   538        10     1    28
## 10 Aransa~ Bagre_m~ U     <NA>              NA   450   539        10     1    28
## # ... with 1,501 more rows, and 2 more variables: Month <dbl>, Year <dbl>

► Question 6

How would you select only rows containing Scalloped Hammerheads (Sphyrna lewini)?

33 Note: you need to use == (not = if you are looking for an exact match).

If want all rows but Gafftop sailfish you can use a ! to say “not that”.

catch %>%
  filter(!Species == "Bagre_marinus")

## # A tibble: 814 x 12
##    Site    Species  Sex   Observed_Stage   PCL    FL   STL Hook_Size   Set   Day
##    <chr>   <chr>    <chr> <chr>          <dbl> <dbl> <dbl>     <dbl> <dbl> <dbl>
##  1 Redfis~ Rhizopr~ M     <NA>             351   378   433        15     1    29
##  2 Redfis~ Sphyrna~ F     <NA>             470   430   600        10     3    29
##  3 Redfis~ Hypanus~ F     <NA>              NA    NA   670        15     3    29
##  4 Redfis~ Hypanus~ F     <NA>              NA    NA   340        10     3    29
##  5 Redfis~ Hypanus~ M     <NA>              NA    NA   810        10     4    29
##  6 Corpus~ Carchar~ F     <NA>             609   670   820        15     1    30
##  7 Corpus~ Sphyrna~ M     <NA>             495   485   615        10     2    24
##  8 Corpus~ Sphyrna~ F     <NA>             550   370   720        10     2    24
##  9 Corpus~ Sphyrna~ M     <NA>             470   505   645        10     3    24
## 10 Corpus~ Sphyrna~ F     <NA>             540   565   720        10     3    24
## # ... with 804 more rows, and 2 more variables: Month <dbl>, Year <dbl>

► Question 7

How would you create a dataframe without Scalloped Hammerheads (Sphyrna lewini) entries?

Sometimes you might want to select rows that match one of a set of values44 Recall, the function c() (concatenate) creates a vector.

catch %>%
  filter(Species %in% c("Sciades_felis", "Bagre_marinus", "Synodus_foetens"))

## # A tibble: 2,166 x 12
##    Site    Species  Sex   Observed_Stage   PCL    FL   STL Hook_Size   Set   Day
##    <chr>   <chr>    <chr> <chr>          <dbl> <dbl> <dbl>     <dbl> <dbl> <dbl>
##  1 Aransa~ Bagre_m~ U     <NA>              NA   287   353        10     1    28
##  2 Aransa~ Bagre_m~ U     <NA>              NA   425   495        10     1    28
##  3 Aransa~ Bagre_m~ U     <NA>              NA   416   502        15     1    28
##  4 Aransa~ Bagre_m~ U     <NA>              NA   416   507        10     1    28
##  5 Aransa~ Bagre_m~ U     <NA>              NA   418   510        15     1    28
##  6 Aransa~ Bagre_m~ U     <NA>              NA   434   515        10     1    28
##  7 Aransa~ Bagre_m~ U     <NA>              NA   427   520        15     1    28
##  8 Aransa~ Bagre_m~ U     <NA>              NA   446   532        10     1    28
##  9 Aransa~ Bagre_m~ U     <NA>              NA   465   538        10     1    28
## 10 Aransa~ Bagre_m~ U     <NA>              NA   450   539        10     1    28
## # ... with 2,156 more rows, and 2 more variables: Month <dbl>, Year <dbl>

Again, if you wanted everything but rows containing those values you would preface it with a !.

catch %>%
  filter(!Species %in% c("Sciades_felis", "Bagre_marinus", "Synodus_foetens"))

## # A tibble: 159 x 12
##    Site    Species  Sex   Observed_Stage   PCL    FL   STL Hook_Size   Set   Day
##    <chr>   <chr>    <chr> <chr>          <dbl> <dbl> <dbl>     <dbl> <dbl> <dbl>
##  1 Redfis~ Rhizopr~ M     <NA>             351   378   433        15     1    29
##  2 Redfis~ Sphyrna~ F     <NA>             470   430   600        10     3    29
##  3 Redfis~ Hypanus~ F     <NA>              NA    NA   670        15     3    29
##  4 Redfis~ Hypanus~ F     <NA>              NA    NA   340        10     3    29
##  5 Redfis~ Hypanus~ M     <NA>              NA    NA   810        10     4    29
##  6 Corpus~ Carchar~ F     <NA>             609   670   820        15     1    30
##  7 Corpus~ Sphyrna~ M     <NA>             495   485   615        10     2    24
##  8 Corpus~ Sphyrna~ F     <NA>             550   370   720        10     2    24
##  9 Corpus~ Sphyrna~ M     <NA>             470   505   645        10     3    24
## 10 Corpus~ Sphyrna~ F     <NA>             540   565   720        10     3    24
## # ... with 149 more rows, and 2 more variables: Month <dbl>, Year <dbl>

► Question 8

How would you subset a data frame to contain only entries for different species in the genus Charcharhinus aka the sharky-sharks? There are four species in the data set - Carcharhinus_leucas, Carcharhinus_brevipinna, Carcharhinus_limbatus, Carcharhinus_porosus.

For numbers you likely aren’t just searching for exact matches, you also want to be able to set threshold values and select everything above or below. For example, you can select all rows with values greater than a certain value using >.

catch %>%
  filter(FL > 440)

## # A tibble: 907 x 12
##    Site    Species  Sex   Observed_Stage   PCL    FL   STL Hook_Size   Set   Day
##    <chr>   <chr>    <chr> <chr>          <dbl> <dbl> <dbl>     <dbl> <dbl> <dbl>
##  1 Aransa~ Bagre_m~ U     <NA>              NA   446   532        10     1    28
##  2 Aransa~ Bagre_m~ U     <NA>              NA   465   538        10     1    28
##  3 Aransa~ Bagre_m~ U     <NA>              NA   450   539        10     1    28
##  4 Aransa~ Bagre_m~ U     <NA>              NA   496   565        10     1    28
##  5 Aransa~ Bagre_m~ U     <NA>              NA   476   569        10     1    28
##  6 Aransa~ Bagre_m~ U     <NA>              NA   495   570        10     1    28
##  7 Aransa~ Bagre_m~ U     <NA>              NA   490   575        10     1    28
##  8 Aransa~ Bagre_m~ U     <NA>              NA   486   581        10     1    28
##  9 Aransa~ Bagre_m~ U     <NA>              NA   503   589        10     1    28
## 10 Aransa~ Bagre_m~ U     <NA>              NA   489   590        10     1    28
## # ... with 897 more rows, and 2 more variables: Month <dbl>, Year <dbl>
…
